src/dump.vcd
$date
	Tue Oct  7 21:18:07 2025
$end
$version
	QuestaSim Version 10.6c
$end
$timescale
	1ns
$end

$scope module uvm_root $end
$upscope $end

$scope module top $end

$scope module DUT $end

$scope module fifomem $end
$upscope $end
$upscope $end
$upscope $end

$scope begin uvm_pkg $end
$var parameter 32 ! UVM_HDL_MAX_WIDTH $end
$var parameter 32 " UVM_STREAMBITS $end
$var parameter 32 # UVM_RADIX $end
$var parameter 32 $ UVM_MACRO_NUMFLAGS $end
$var parameter 32 % UVM_DEFAULT $end
$var parameter 32 & UVM_ALL_ON $end
$var parameter 32 ' UVM_FLAGS_ON $end
$var parameter 32 ( UVM_FLAGS_OFF $end
$var parameter 32 ) UVM_COPY $end
$var parameter 32 * UVM_NOCOPY $end
$var parameter 32 + UVM_COMPARE $end
$var parameter 32 , UVM_NOCOMPARE $end
$var parameter 32 - UVM_PRINT $end
$var parameter 32 . UVM_NOPRINT $end
$var parameter 32 / UVM_RECORD $end
$var parameter 32 0 UVM_NORECORD $end
$var parameter 32 1 UVM_PACK $end
$var parameter 32 2 UVM_NOPACK $end
$var parameter 32 3 UVM_PHYSICAL $end
$var parameter 32 4 UVM_ABSTRACT $end
$var parameter 32 5 UVM_READONLY $end
$var parameter 32 6 UVM_NODEFPRINT $end
$var parameter 32 7 UVM_MACRO_EXTRAS $end
$var parameter 32 8 UVM_FLAGS $end
$var parameter 32 9 UVM_UNPACK $end
$var parameter 32 : UVM_CHECK_FIELDS $end
$var parameter 32 ; UVM_END_DATA_EXTRA $end
$var parameter 32 < UVM_START_FUNCS $end
$var parameter 32 = UVM_SET $end
$var parameter 32 > UVM_SETINT $end
$var parameter 32 ? UVM_SETOBJ $end
$var parameter 32 @ UVM_SETSTR $end
$var parameter 32 A UVM_END_FUNCS $end
$var parameter 32 B UVM_STR_CRC_POLYNOMIAL $end
$var parameter 32 C UVM_STDOUT $end
$var parameter 32 D UVM_LINE_WIDTH $end
$var parameter 32 E UVM_NUM_LINES $end
$var parameter 32 F UVM_SMALL_STRING $end
$var parameter 32 G UVM_LARGE_STRING $end
$var reg 1 H uvm_start_uvm_declarations $end
$var integer 32 I uvm_global_random_seed $end
$var integer 32 J UVM_UNBOUNDED_CONNECTIONS $end

$scope function uvm_hdl_check_path $end
$var integer 32 K uvm_hdl_check_path $end
$upscope $end

$scope function uvm_hdl_deposit $end
$var integer 32 L uvm_hdl_deposit $end
$var reg 1024 M value [1023:0] $end
$upscope $end

$scope function uvm_hdl_force $end
$var integer 32 N uvm_hdl_force $end
$var reg 1024 O value [1023:0] $end
$upscope $end

$scope task uvm_hdl_force_time $end
$var reg 1024 P value [1023:0] $end
$var time 64 Q force_time $end
$upscope $end

$scope function uvm_hdl_release_and_read $end
$var integer 32 R uvm_hdl_release_and_read $end
$var reg 1024 S value [1023:0] $end
$upscope $end

$scope function uvm_hdl_release $end
$var integer 32 T uvm_hdl_release $end
$upscope $end

$scope function uvm_hdl_read $end
$var integer 32 U uvm_hdl_read $end
$var reg 1024 V value [1023:0] $end
$upscope $end

$scope function uvm_dpi_get_next_arg_c $end
$upscope $end

$scope function uvm_dpi_get_tool_name_c $end
$upscope $end

$scope function uvm_dpi_get_tool_version_c $end
$upscope $end

$scope function uvm_dpi_get_next_arg $end
$upscope $end

$scope function uvm_dpi_get_tool_name $end
$upscope $end

$scope function uvm_dpi_get_tool_version $end
$upscope $end

$scope function uvm_dpi_regcomp $end
$upscope $end

$scope function uvm_dpi_regexec $end
$var integer 32 W uvm_dpi_regexec $end
$upscope $end

$scope function uvm_dpi_regfree $end
$upscope $end

$scope function uvm_re_match $end
$var integer 32 X uvm_re_match $end
$upscope $end

$scope function uvm_dump_re_cache $end
$upscope $end

$scope function uvm_glob_to_re $end
$upscope $end

$scope function uvm_revision_string $end
$upscope $end

$scope function uvm_radix_to_string $end
$var integer 32 Y radix $end
$upscope $end

$scope function uvm_instance_scope $end
$var reg 8 Z c [7:0] $end
$var integer 32 [ pos $end
$upscope $end

$scope function uvm_oneway_hash $end
$var integer 32 \ uvm_oneway_hash $end
$var integer 32 ] seed $end
$var reg 1 ^ msb $end
$var reg 8 _ current_byte [7:0] $end
$var reg 32 ` crc1 [31:0] $end
$upscope $end

$scope function uvm_create_random_seed $end
$var integer 32 a uvm_create_random_seed $end
$upscope $end

$scope function uvm_object_value_str $end
$upscope $end

$scope function uvm_leaf_scope $end
$var reg 8 b scope_separator [7:0] $end
$var reg 8 c bracket_match [7:0] $end
$var integer 32 d pos $end
$var integer 32 e bmatches $end
$upscope $end

$scope function uvm_vector_to_string $end
$var reg 4096 f value [4095:0] $end
$var integer 32 g size $end
$var integer 32 h radix $end
$upscope $end

$scope function uvm_get_array_index_int $end
$var integer 32 i uvm_get_array_index_int $end
$var reg 1 j is_wildcard $end
$var integer 32 k i $end
$upscope $end

$scope function uvm_get_array_index_string $end
$var reg 1 l is_wildcard $end
$var integer 32 m i $end
$upscope $end

$scope function uvm_is_array $end
$var reg 1 n uvm_is_array $end
$upscope $end

$scope function uvm_has_wildcard $end
$upscope $end

$scope task run_test $end
$upscope $end

$scope function global_stop_request $end
$upscope $end

$scope function set_global_timeout $end
$var time 64 o timeout $end
$var reg 1 p overridable $end
$upscope $end

$scope function set_global_stop_timeout $end
$var time 64 q timeout $end
$upscope $end

$scope function uvm_report_enabled $end
$var reg 1 r uvm_report_enabled $end
$var integer 32 s verbosity $end
$var reg 2 t severity [1:0] $end
$upscope $end

$scope function uvm_report $end
$var reg 2 u severity [1:0] $end
$var integer 32 v verbosity $end
$var integer 32 w line $end
$upscope $end

$scope function uvm_report_info $end
$var integer 32 x verbosity $end
$var integer 32 y line $end
$upscope $end

$scope function uvm_report_warning $end
$var integer 32 z verbosity $end
$var integer 32 { line $end
$upscope $end

$scope function uvm_report_error $end
$var integer 32 | verbosity $end
$var integer 32 } line $end
$upscope $end

$scope function uvm_report_fatal $end
$var integer 32 ~ verbosity $end
$var integer 32 !! line $end
$upscope $end

$scope function uvm_string_to_severity $end
$var reg 1 "! uvm_string_to_severity $end
$var reg 2 #! sev [1:0] $end
$upscope $end

$scope function uvm_string_to_action $end
$upscope $end

$scope function set_config_int $end
$var reg 4096 $! value [4095:0] $end
$upscope $end

$scope function set_config_object $end
$var reg 1 %! clone $end
$upscope $end

$scope function set_config_string $end
$upscope $end

$scope function uvm_is_match $end
$var reg 1 &! uvm_is_match $end
$upscope $end

$scope function uvm_string_to_bits $end
$var reg 115200 '! uvm_string_to_bits [115199:0] $end
$upscope $end

$scope function uvm_bits_to_string $end
$var reg 115200 (! str [115199:0] $end
$upscope $end

$scope task uvm_wait_for_nba_region $end
$var integer 32 )! nba $end
$var integer 32 *! next_nba $end
$upscope $end

$scope function uvm_split_string $end
$upscope $end

$scope function uvm_hdl_concat2string $end
$upscope $end
$upscope $end

$scope begin afifo_pkg $end
$upscope $end

$scope begin top_sv_unit $end
$upscope $end

$scope begin std $end
$upscope $end

$scope begin questa_uvm_pkg $end
$upscope $end
$enddefinitions $end
#0
$dumpvars
0l
0n
0"!
b0 #!
bx '!
bx (!
bx M
bx O
bx P
bx S
bx V
1H
0^
b1110001 _
b11010001001000111000000110110010 `
b1 f
0j
0p
0r
b0 t
b0 u
bx $!
0%!
0&!
b10000000000 !
b1000000000000 "
b1111000000000000000000000000 #
b10001 $
b10101010101 %
b101010101 &
b101010101 '
b0 (
b1 )
b10 *
b100 +
b1000 ,
b10000 -
b100000 .
b1000000 /
b10000000 0
b100000000 1
b1000000000 2
b10000000000000 3
b100000000000000 4
b1000000000000000 5
b10000000000000000 6
b100000000000000000 7
b100000000000000001 8
b100000000000000010 9
b100000000000000011 :
b100000000000000100 ;
b100000000000000101 <
b100000000000000110 =
b100000000000000110 >
b100000000000000111 ?
b100000000000001000 @
b100000000000001000 A
b100110000010001110110110110 B
b1 C
b1111000 D
b1111000 E
b1110111111 F
b11100000111111111 G
b0 Y
b101110 b
b0 c
b101001 d
b11111111111111111111111111111111 e
b0 m
b0 K
b0 L
b0 N
b0 R
b0 T
b0 U
b1 W
b0 X
b1101001011000001111100000011110 I
b101110 Z
b111 [
b10110110110111111101010001001100 \
b1101001011000001111100000011110 ]
b10110100111100000010011000011000 a
b100000 g
b10000000000000000000000000 h
b0 i
b0 k
b111110100 s
b0 v
b0 w
b11001000 x
b11011001 y
b0 z
b0 {
b0 |
b0 }
b0 ~
b0 !!
b100101 )!
b100101 *!
b11111111111111111111111111111111 J
bx Q
bx o
bx q
$end
#10
b100110 *!
b11011011101001111100111011001010 a
b100110 )!
#20
b100111 *!
b10110110110111111101010001001101 a
b100111 )!
#30
b101000 *!
b11011011101001111100111011001100 a
b101000 )!
#50
b101001 *!
b11011011101001111100111011001111 a
b101001 )!
#60
b101010 *!
b10110110110111111101010001001111 a
b101010 )!
#70
b101011 *!
b11011011101001111100111011010011 a
b101011 )!
#90
b101100 *!
b11011011101001111100111011011000 a
b101100 )!
#100
b101101 *!
b10110110110111111101010001010010 a
b101101 )!
#110
b101110 *!
b11011011101001111100111011011110 a
b101110 )!
#130
b101111 *!
b11011011101001111100111011100101 a
b101111 )!
#140
b110000 *!
b10110110110111111101010001010110 a
b110000 )!
#150
b110001 *!
b11011011101001111100111011101101 a
b110001 )!
#170
b110010 *!
b11011011101001111100111011110110 a
b110010 )!
#180
b110011 *!
b10110110110111111101010001011011 a
b110011 )!
#190
b110100 *!
b11011011101001111100111100000000 a
b110100 )!
#210
b110101 *!
b11011011101001111100111100001011 a
b110101 )!
#220
b110110 *!
b10110110110111111101010001100001 a
b110110 )!
#230
b110111 *!
b11011011101001111100111100010111 a
b110111 )!
#250
b111000 *!
b11011011101001111100111100100100 a
b111000 )!
#260
b111001 *!
b10110110110111111101010001101000 a
b111001 )!
#270
b111010 *!
b11011011101001111100111100110010 a
b111010 )!
#290
b111011 *!
b11011011101001111100111101000001 a
b111011 )!
#300
b111100 *!
b10110110110111111101010001110000 a
b111100 )!
#310
b111101 *!
b11011011101001111100111101010001 a
b111101 )!
#330
b111110 *!
b11011011101001111100111101100010 a
b111110 )!
#340
b111111 *!
b10110110110111111101010001111001 a
b111111 )!
#350
b1000000 *!
b11011011101001111100111101110100 a
b1000000 )!
#370
b1000001 *!
b11011011101001111100111110000111 a
b1000001 )!
#380
b1000010 *!
b10110110110111111101010010000011 a
b1000010 )!
#390
b1000011 *!
b11011011101001111100111110011011 a
b1000011 )!
#410
b1000100 *!
b11011011101001111100111110110000 a
b1000100 )!
#420
b1000101 *!
b10110110110111111101010010001110 a
b1000101 )!
#430
b1000110 *!
b11011011101001111100111111000110 a
b1000110 )!
#450
b1000111 *!
b11011011101001111100111111011101 a
b1000111 )!
#460
b1001000 *!
b10110110110111111101010010011010 a
b1001000 )!
#470
b1001001 *!
b11011011101001111100111111110101 a
b1001001 )!
#490
b1001010 *!
b11011011101001111101000000001110 a
b1001010 )!
#500
b1001011 *!
b10110110110111111101010010100111 a
b1001011 )!
#510
b1001100 *!
b11011011101001111101000000101000 a
b1001100 )!
#530
b1001101 *!
b11011011101001111101000001000011 a
b1001101 )!
#540
b1001110 *!
b10110110110111111101010010110101 a
b1001110 )!
#550
b1001111 *!
b11011011101001111101000001011111 a
b1001111 )!
#570
b1010000 *!
b11011011101001111101000001111100 a
b1010000 )!
#580
b1010001 *!
b10110110110111111101010011000100 a
b1010001 )!
#590
b1010010 *!
b11011011101001111101000010011010 a
b1010010 )!
#610
b1010011 *!
b11011011101001111101000010111001 a
b1010011 )!
#620
b1010100 *!
b10110110110111111101010011010100 a
b1010100 )!
#630
b1010101 *!
b11011011101001111101000011011001 a
b1010101 )!
#650
b1010110 *!
b11011011101001111101000011111010 a
b1010110 )!
#660
b1010111 *!
b10110110110111111101010011100101 a
b1010111 )!
#670
b1011000 *!
b11011011101001111101000100011100 a
b1011000 )!
#690
b1011001 *!
b11011011101001111101000100111111 a
b1011001 )!
#700
b1011010 *!
b10110110110111111101010011110111 a
b1011010 )!
#710
b1011011 *!
b11011011101001111101000101100011 a
b1011011 )!
#730
b1011100 *!
b11011011101001111101000110001000 a
b1011100 )!
#740
b1011101 *!
b10110110110111111101010100001010 a
b1011101 )!
#750
b1011110 *!
b11011011101001111101000110101110 a
b1011110 )!
#770
b1011111 *!
b11011011101001111101000111010101 a
b1011111 )!
#780
b1100000 *!
b10110110110111111101010100011110 a
b1100000 )!
#790
b1100001 *!
b11011011101001111101000111111101 a
b1100001 )!
#810
b1100010 *!
b11011011101001111101001000100110 a
b1100010 )!
#820
b1100011 *!
b10110110110111111101010100110011 a
b1100011 )!
#830
b1100100 *!
b11011011101001111101001001010000 a
b1100100 )!
#850
b1100101 *!
b11011011101001111101001001111011 a
b1100101 )!
#860
b1100110 *!
b10110110110111111101010101001001 a
b1100110 )!
#870
b1100111 *!
b11011011101001111101001010100111 a
b1100111 )!
#890
b1101000 *!
b11011011101001111101001011010100 a
b1101000 )!
#900
b1101001 *!
b10110110110111111101010101100000 a
b1101001 )!
#910
b1101010 *!
b11011011101001111101001100000010 a
b1101010 )!
#930
b1101011 *!
b11011011101001111101001100110001 a
b1101011 )!
#940
b1101100 *!
b10110110110111111101010101111000 a
b1101100 )!
#950
b1101101 *!
b11011011101001111101001101100001 a
b1101101 )!
#970
b1101110 *!
b11011011101001111101001110010010 a
b1101110 )!
#980
b1101111 *!
b10110110110111111101010110010001 a
b1101111 )!
#990
b1110000 *!
b11011011101001111101001111000100 a
b1110000 )!
#1010
b1110001 *!
b11011011101001111101001111110111 a
b1110001 )!
#1020
b1110010 *!
b10110110110111111101010110101011 a
b1110010 )!
#1030
b1110011 *!
b11011011101001111101010000101011 a
b1110011 )!
#1050
b1110100 *!
b11011011101001111101010001100000 a
b1110100 )!
#1060
b1110101 *!
b10110110110111111101010111000110 a
b1110101 )!
#1070
b1110110 *!
b11011011101001111101010010010110 a
b1110110 )!
#1090
b1110111 *!
b11011011101001111101010011001101 a
b1110111 )!
#1100
b1111000 *!
b10110110110111111101010111100010 a
b1111000 )!
#1110
b1111001 *!
b11011011101001111101010100000101 a
b1111001 )!
#1130
b1111010 *!
b11011011101001111101010100111110 a
b1111010 )!
#1140
b1111011 *!
b10110110110111111101010111111111 a
b1111011 )!
#1150
b1111100 *!
b11011011101001111101010101111000 a
b1111100 )!
#1170
b1111101 *!
b11011011101001111101010110110011 a
b1111101 )!
#1180
b1111110 *!
b10110110110111111101011000011101 a
b1111110 )!
#1190
b1111111 *!
b11011011101001111101010111101111 a
b1111111 )!
#1210
b10000000 *!
b11011011101001111101011000101100 a
b10000000 )!
#1220
b10000001 *!
b10110110110111111101011000111100 a
b10000001 )!
#1230
b10000010 *!
b11011011101001111101011001101010 a
b10000010 )!
#1250
b10000011 *!
b11011011101001111101011010101001 a
b10000011 )!
#1260
b10000100 *!
b10110110110111111101011001011100 a
b10000100 )!
#1270
b10000101 *!
b11011011101001111101011011101001 a
b10000101 )!
#1290
b10000110 *!
b11011011101001111101011100101010 a
b10000110 )!
#1300
b10000111 *!
b10110110110111111101011001111101 a
b10000111 )!
#1310
b10001000 *!
b11011011101001111101011101101100 a
b10001000 )!
#1330
b10001001 *!
b11011011101001111101011110101111 a
b10001001 )!
#1340
b10001010 *!
b10110110110111111101011010011111 a
b10001010 )!
#1350
b10001011 *!
b11011011101001111101011111110011 a
b10001011 )!
#1370
b10001100 *!
b11011011101001111101100000111000 a
b10001100 )!
#1380
b10001101 *!
b10110110110111111101011011000010 a
b10001101 )!
#1390
b10001110 *!
b11011011101001111101100001111110 a
b10001110 )!
#1410
b10001111 *!
b11011011101001111101100011000101 a
b10001111 )!
#1420
b10010000 *!
b10110110110111111101011011100110 a
b10010000 )!
#1430
b10010001 *!
b11011011101001111101100100001101 a
b10010001 )!
#1450
b10010010 *!
b11011011101001111101100101010110 a
b10010010 )!
#1460
b10010011 *!
b10110110110111111101011100001011 a
b10010011 )!
#1470
b10010100 *!
b11011011101001111101100110100000 a
b10010100 )!
#1490
b10010101 *!
b11011011101001111101100111101011 a
b10010101 )!
#1500
b10010110 *!
b10110110110111111101011100110001 a
b10010110 )!
#1510
b10010111 *!
b11011011101001111101101000110111 a
b10010111 )!
#1530
b10011000 *!
b11011011101001111101101010000100 a
b10011000 )!
#1540
b10011001 *!
b10110110110111111101011101011000 a
b10011001 )!
#1550
b10011010 *!
b11011011101001111101101011010010 a
b10011010 )!
#1570
b10011011 *!
b11011011101001111101101100100001 a
b10011011 )!
#1580
b10011100 *!
b10110110110111111101011110000000 a
b10011100 )!
#1590
b10011101 *!
b11011011101001111101101101110001 a
b10011101 )!
#1610
b10011110 *!
b11011011101001111101101111000010 a
b10011110 )!
#1620
b10011111 *!
b10110110110111111101011110101001 a
b10011111 )!
#1630
b10100000 *!
b11011011101001111101110000010100 a
b10100000 )!
#1650
b10100001 *!
b11011011101001111101110001100111 a
b10100001 )!
#1660
b10100010 *!
b10110110110111111101011111010011 a
b10100010 )!
#1670
b10100011 *!
b11011011101001111101110010111011 a
b10100011 )!
#1690
b10100100 *!
b11011011101001111101110100010000 a
b10100100 )!
#1700
b10100101 *!
b10110110110111111101011111111110 a
b10100101 )!
#1710
b10100110 *!
b11011011101001111101110101100110 a
b10100110 )!
#1730
b10100111 *!
b11011011101001111101110110111101 a
b10100111 )!
#1740
b10101000 *!
b10110110110111111101100000101010 a
b10101000 )!
#1750
b10101001 *!
b11011011101001111101111000010101 a
b10101001 )!
#1770
b10101010 *!
b11011011101001111101111001101110 a
b10101010 )!
#1780
b10101011 *!
b10110110110111111101100001010111 a
b10101011 )!
#1790
b10101100 *!
b11011011101001111101111011001000 a
b10101100 )!
#1810
b10101101 *!
b11011011101001111101111100100011 a
b10101101 )!
#1820
b10101110 *!
b10110110110111111101100010000101 a
b10101110 )!
#1830
b10101111 *!
b11011011101001111101111101111111 a
b10101111 )!
#1850
b10110000 *!
b11011011101001111101111111011100 a
b10110000 )!
#1860
b10110001 *!
b10110110110111111101100010110100 a
b10110001 )!
#1870
b10110010 *!
b11011011101001111110000000111010 a
b10110010 )!
#1890
b10110011 *!
b11011011101001111110000010011001 a
b10110011 )!
#1900
b10110100 *!
b10110110110111111101100011100100 a
b10110100 )!
#1910
b10110101 *!
b11011011101001111110000011111001 a
b10110101 )!
#1930
b10110110 *!
b11011011101001111110000101011010 a
b10110110 )!
#1940
b10110111 *!
b10110110110111111101100100010101 a
b10110111 )!
#1950
b10111000 *!
b11011011101001111110000110111100 a
b10111000 )!
#1970
b10111001 *!
b11011011101001111110001000011111 a
b10111001 )!
#1980
b10111010 *!
b10110110110111111101100101000111 a
b10111010 )!
